{
  "OTHER": {
    "packages": {
      "to": "/packages",
      "caption": "Select package"
    },
    "thankyou": {
      "to": "/thankyou",
      "caption": "Thank You"
    },
    "durationDetails": {
      "to": "/useses",
      "caption": "Useses"
    },
    "addPayment": {
      "to": "/add-payment",
      "caption": "Add Payment"
    }
  },
  "ADMIN": [
    {
      "default": true,
      "to": "/adminusermanagement",
      "caption": "User Management",
      "submenu": [
        "/admincompanyuser",
        "/adminaddressbook"
      ],
      "company": [
        "FREE_TYPE",
        "STARTUP",
        "ENTERPRISE"
      ],
      "status": true
    },
    {
      "to": "/admincompanymanagement",
      "caption": "Company Management",
      "submenu": [],
      "company": [
        "FREE_TYPE",
        "STARTUP",
        "ENTERPRISE"
      ],
      "status": true
    },
    {
      "to": "/adminconference",
      "caption": "Conference",
      "submenu": [
        "/admincompanyconference",
        "/adminconferencelist",
        "/companyarchives",
        "/archives",
        "/conferencearchivelist"
      ],
      "company": [
        "FREE_TYPE",
        "STARTUP",
        "ENTERPRISE"
      ],
      "status": true
    },
    {
      "to": "/servicemanagement",
      "caption": "Service Management",
      "submenu": [
        "/numberconfigue",
        "/countrycodeconfigue",
        "/outboundconfigue"
      ],
      "company": [
        "FREE_TYPE",
        "STARTUP",
        "ENTERPRISE"
      ],
      "status": true
    },
    {
      "to": "/adminnumbermanagement",
      "caption": "Number Management",
      "submenu": [
        "/assigninboundnumber",
        "/assignoutboundnumber"
      ],
      "company": [
        "FREE_TYPE",
        "STARTUP",
        "ENTERPRISE"
      ],
      "status": true
    },
    {
      "to": "/operatormanagement",
      "caption": "Operator Management",
      "submenu": [
        "/adminoperatorstat"
      ],
      "company": [
        "FREE_TYPE",
        "STARTUP",
        "ENTERPRISE"
      ],
      "status": true
    },
    {
      "to": "/adminpaymentmanagement",
      "caption": "Payment Management",
      "submenu": [
        "/admininvoicemanagement",
        "/viewinvoice"
      ],
      "company": [
        "FREE_TYPE",
        "STARTUP",
        "ENTERPRISE"
      ],
      "status": true
    },
    {
      "to": "/admincontentmanagement",
      "caption": "Content Management",
      "submenu": [],
      "company": [
        "FREE_TYPE",
        "STARTUP",
        "ENTERPRISE"
      ],
      "status": true
    },
    {
      "to": "/newregistered",
      "caption": "New Registered",
      "submenu": [],
      "company": [
        "FREE_TYPE",
        "STARTUP",
        "ENTERPRISE"
      ],
      "status": true
    },
    {
      "to": "/adminaccountupgrade",
      "caption": "Account Upgrade",
      "submenu": [],
      "company": [
        "FREE_TYPE",
        "STARTUP",
        "ENTERPRISE"
      ],
      "status": true
    },
    {
      "to": "/adminreport",
      "caption": "Report",
      "submenu": [
        "/adminreport/inbound",
        "/adminreport/outbound",
        "/adminreport/archive",
        "/adminreport/web",
        "/adminreport/transaction",
        "/adminreport/conference/:id",
        "/adminreport/conferencelist",
        "/monthly-summary"
      ],
      "company": [
        "FREE_TYPE",
        "STARTUP",
        "ENTERPRISE"
      ],
      "status": true
    },
    {
      "to": "/numberconfigue",
      "company": [
        "FREE_TYPE",
        "STARTUP",
        "ENTERPRISE"
      ],
      "status": false
    },
    {
      "to": "/countrycodeconfigue",
      "company": [
        "FREE_TYPE",
        "STARTUP",
        "ENTERPRISE"
      ],
      "status": false
    },
    {
      "to": "/outboundconfigue",
      "company": [
        "FREE_TYPE",
        "STARTUP",
        "ENTERPRISE"
      ],
      "status": false 
    },
    {
      "to": "/assigninboundnumber",
      "company": [
        "FREE_TYPE",
        "STARTUP",
        "ENTERPRISE"
      ],
      "status": false
    },
    {
      "to": "/assignoutboundnumber",
      "company": [
        "FREE_TYPE",
        "STARTUP",
        "ENTERPRISE"
      ],
      "status": false
    },
    {
      "to": "/usedservices",
      "company": [
        "FREE_TYPE",
        "STARTUP",
        "ENTERPRISE"
      ],
      "status": false
    },
    {
      "to": "/admininvoicemanagement",
      "company": [
        "FREE_TYPE",
        "STARTUP",
        "ENTERPRISE"
      ],
      "status": false
    },
    {
      "to": "/viewinvoice",
      "company": [
        "FREE_TYPE",
        "STARTUP",
        "ENTERPRISE"
      ],
      "status": false
    },
    {
      "to": "/admincompanyuser",
      "company": [
        "FREE_TYPE",
        "STARTUP",
        "ENTERPRISE"
      ],
      "status": false
    },
    {
      "to": "/adminaddressbook",
      "company": [
        "FREE_TYPE",
        "STARTUP",
        "ENTERPRISE"
      ],
      "status": false  
    },
    {
      "to": "/admincompanyconference",
      "company": [
        "FREE_TYPE",
        "STARTUP",
        "ENTERPRISE"
      ],
      "status": false
    },
    {
      "to": "/companyarchives",
      "company": [
        "FREE_TYPE",
        "STARTUP",
        "ENTERPRISE"
      ],
      "status": false
    },
    {
      "to": "/conferencearchivelist",
      "submenu": [],
      "company": [
        "FREE_TYPE",
        "STARTUP",
        "ENTERPRISE"
      ],
      "status": false
    },
    {
      "to": "/adminconferencelist",
      "company": [
        "FREE_TYPE",
        "STARTUP",
        "ENTERPRISE"
      ],
      "status": false
    },
    {
      "to": "/archives",
      "company": [
        "FREE_TYPE",
        "STARTUP",
        "ENTERPRISE"
      ],
      "status": false
    },
    {
      "to": "/adminoperatorstat",
      "company": [
        "FREE_TYPE",
        "STARTUP",
        "ENTERPRISE"
      ],
      "status": false
    },
    {
      "to": "/companyprofileupdate",
      "submenu": [],
      "company": [
        "FREE_TYPE",
        "STARTUP",
        "ENTERPRISE"
      ],
      "status": false
    },
    {
      "to": "/userprofileupdate",
      "submenu": [],
      "company": [
        "FREE_TYPE",
        "STARTUP",
        "ENTERPRISE"
      ],
      "status": false
    },
    {
      "to": "/adminreport/inbound",
      "submenu": [],
      "company": [
        "FREE_TYPE",
        "STARTUP",
        "ENTERPRISE"
      ],
      "status": false
    },
    {
      "to": "/adminreport/outbound",
      "submenu": [],
      "company": [
        "FREE_TYPE",
        "STARTUP",
        "ENTERPRISE"
      ],
      "status": false
    },
    {
      "to": "/adminreport/archive",
      "submenu": [],
      "company": [
        "FREE_TYPE",
        "STARTUP",
        "ENTERPRISE"
      ],
      "status": false
    },
    {
      "to": "/adminreport/web",
      "submenu": [],
      "company": [
        "FREE_TYPE",
        "STARTUP",
        "ENTERPRISE"
      ],
      "status": false
    },
    {
      "to": "/adminreport/transaction",
      "submenu": [],
      "company": [
        "FREE_TYPE",
        "STARTUP",
        "ENTERPRISE"
      ],
      "status": false
    },
    {
      "to": "/adminreport/conferencelist",
      "submenu": [],
      "company": [
        "FREE_TYPE",
        "STARTUP",
        "ENTERPRISE"
      ],
      "status": false 
    },
    {
      "to": "/adminreport/conference/:id", 
      "submenu": [],
      "company": [
        "FREE_TYPE",
        "STARTUP",
        "ENTERPRISE"
      ],
      "status": false
    },
    {
      "to": "/monthly-summary", 
      "submenu": [],
      "company": [
        "FREE_TYPE",
        "STARTUP",
        "ENTERPRISE"
      ],
      "status": false
    }
  ],
  "ADMIN_OPERATOR": [
    {
      "default": true,
      "to": "/usermanagement",
      "submenu": [],
      "caption": "User Management",
      "company": [
        "FREE_TYPE",
        "STARTUP",
        "ENTERPRISE"
      ],
      "status": true
    },
    {
      "to": "/userprofileupdate",
      "submenu": [],
      "company": [
        "FREE_TYPE",
        "STARTUP",
        "ENTERPRISE"
      ],
      "status": false
    }
  ],
  "COMPANY_OPERATOR": [
    {
      "default": true,
      "to": "/opmaddressbook",
      "submenu": [],
      "caption": "Address Book",
      "company": [
        "FREE_TYPE",
        "STARTUP",
        "ENTERPRISE"
      ],
      "status": true
    },
    {
      "to": "/conferencecall",
      "submenu": [],
      "caption": "Conference",
      "company": [
        "FREE_TYPE",
        "STARTUP",
        "ENTERPRISE"
      ],
      "status": true
    },
    {
      "to": "/userprofileupdate",
      "submenu": [],
      "company": [
        "FREE_TYPE",
        "STARTUP",
        "ENTERPRISE"
      ],
      "status": false
    }
  ],
  "COMPANY_ADMIN": [
    {
      "default": true,
      "to": "/opmaddressbook",
      "submenu": [],
      "caption": "Address Book",
      "company": [
        "FREE_TYPE",
        "STARTUP",
        "ENTERPRISE"
      ],
      "status": true
    },
    {
      "to": "/conferencecall",
      "submenu": [
        "/companyarchives",
        "/conferencearchivelist"
      ],
      "caption": "Conference",
      "company": [
        "FREE_TYPE",
        "STARTUP",
        "ENTERPRISE"
      ],
      "status": true
    },
    {
      "to": "/usermanagement",
      "submenu": [],
      "caption": "User Management",
      "company": [
        "FREE_TYPE",
        "STARTUP",
        "ENTERPRISE"
      ],
      "status": true
    },
    {
      "to": "/companyoperator",
      "submenu": [
        "/companyoperatorstat"
      ],
      "caption": "Operator Management",
      "company": [
        "FREE_TYPE",
        "STARTUP",
        "ENTERPRISE"
      ],
      "status": true
    },
    {
      "to": "/paymentmanagement",
      "submenu": [
        "/usedservices",
        "/invoice"
      ],
      "caption": "Payment Management",
      "company": [
        "STARTUP",
        "ENTERPRISE"
      ],
      "status": true
    },
    {
      "to": "/companyservicemanagement",
      "submenu": [],
      "caption": "Service Management",
      "company": [
        "FREE_TYPE",
        "STARTUP",
        "ENTERPRISE"
      ],
      "status": true
    },
    {
      "to": "/upgrade-account",
      "submenu": [],
      "caption": "Upgrade Account",
      "company": [
        "FREE_TYPE",
        "STARTUP",
        "ENTERPRISE"
      ],
      "status": true
    },
    {
      "to": "/numbermanagement",
      "submenu": [],
      "caption": "Access Numbers",
      "company": [
        "FREE_TYPE",
        "STARTUP",
        "ENTERPRISE"
      ],
      "status": true
    },
    {
      "to": "/companyreport",
      "submenu": [
        "/companyreport/inbound",
        "/companyreport/outbound",
        "/companyreport/archive",
        "/companyreport/web",
        "/companyreport/transaction",
        "/companyreport/conferencelist",
        "/companyreport/conference/:id"
      ],
      "caption": "Report",
      "company": [
        "FREE_TYPE",
        "STARTUP",
        "ENTERPRISE"
      ],
      "status": true
    },
    {
      "to": "/usedservices",
      "submenu": [],
      "company": [
        "STARTUP",
        "ENTERPRISE"
      ],
      "status": false
    },
    {
      "to": "/invoice",
      "submenu": [],
      "company": [
        "STARTUP",
        "ENTERPRISE"
      ],
      "status": false
    },
    {
      "to": "/companyoperatorstat",
      "submenu": [],
      "company": [
        "FREE_TYPE",
        "STARTUP",
        "ENTERPRISE"
      ],
      "status": false
    },
    {
      "to": "/companyprofileupdate",
      "submenu": [],
      "company": [
        "FREE_TYPE",
        "STARTUP",
        "ENTERPRISE"
      ],
      "status": false
    },
    {
      "to": "/userprofileupdate",
      "submenu": [],
      "company": [
        "FREE_TYPE",
        "STARTUP",
        "ENTERPRISE"
      ],
      "status": false  
    },
    {
      "to": "/companyarchives",
      "submenu": [],
      "company": [
        "FREE_TYPE",
        "STARTUP",
        "ENTERPRISE"
      ],
      "status": false
    },
    {
      "to": "/conferencearchivelist",
      "submenu": [],
      "company": [
        "FREE_TYPE",
        "STARTUP",
        "ENTERPRISE"
      ],
      "status": false
    },
    {
      "to": "/companyreport/inbound",
      "submenu": [],
      "company": [
        "FREE_TYPE",
        "STARTUP",
        "ENTERPRISE"
      ],
      "status": false
    },
    {
      "to": "/companyreport/outbound",
      "submenu": [],
      "company": [
        "FREE_TYPE",
        "STARTUP",
        "ENTERPRISE"
      ],
      "status": false
    },
    {
      "to": "/companyreport/archive",
      "submenu": [],
      "company": [
        "FREE_TYPE",
        "STARTUP",
        "ENTERPRISE"
      ],
      "status": false
    },
    {
      "to": "/companyreport/web",
      "submenu": [],
      "company": [
        "FREE_TYPE",
        "STARTUP",
        "ENTERPRISE"
      ],
      "status": false
    },
    {
      "to": "/companyreport/transaction",
      "submenu": [],
      "company": [
        "FREE_TYPE",
        "STARTUP",
        "ENTERPRISE"
      ],
      "status": false
    },
    {
      "to": "/companyreport/conferencelist",
      "submenu": [],
      "company": [
        "FREE_TYPE",
        "STARTUP",
        "ENTERPRISE"
      ],
      "status": false
    },
    {
      "to": "/companyreport/conference/:id",
      "submenu": [],
      "company": [
        "FREE_TYPE",
        "STARTUP",
        "ENTERPRISE"
      ],
      "status": false
    }
  ],
  "COMPANY_USER": [
    {
      "default": true,
      "to": "/opmaddressbook",
      "submenu": [],
      "caption": "Address Book",
      "company": [
        "FREE_TYPE",
        "STARTUP",
        "ENTERPRISE"
      ],
      "status": true
    },
    {
      "to": "/conferencecall",
      "submenu": [],
      "caption": "Conference",
      "company": [
        "FREE_TYPE",
        "STARTUP",
        "ENTERPRISE"
      ],
      "status": true
    },
    {
      "to": "/userprofileupdate",
      "submenu": [],
      "company": [
        "FREE_TYPE",
        "STARTUP",
        "ENTERPRISE"
      ],
      "status": false
    }
  ],
  "ENTERPRISE": [
    {
      "default": true,
      "to": "/opmaddressbook",
      "submenu": [],
      "caption": "Address Book"
    },
    {
      "to": "/conferencecall",
      "caption": "Conference"
    }
  ],
  "STARTER": [
    {
      "default": true,
      "to": "/opmaddressbook",
      "caption": "Address Book"
    },
    {
      "to": "/conferencecall",
      "caption": "Conference"
    }
  ],
  "PARTICIPANT": [
    {
      "default": true,
      "to": "/opmaddressbook",
      "caption": "Address Book"
    },
    {
      "to": "/conferencecall",
      "caption": "Conference"
    },
    {
      "to": "/usermanagement",
      "caption": "User Management"
    },
    {
      "to": "/companyoperator",
      "caption": "Operator Management"
    },
    {
      "to": "/adminoperatorpool",
      "caption": "Admin Operator Pool"
    }
  ],
  "GUEST": [
    {
      "default": true,
      "to": "/conferencecall",
      "submenu": [],
      "caption": "Conference",
      "company": [
        "GUEST"
      ],
      "status": true
    }
  ]
}